{
  "annotations": {
    "list": [
      {
        "builtIn": 1,
        "datasource": {
          "type": "grafana",
          "uid": "-- Grafana --"
        },
        "enable": true,
        "hide": true,
        "iconColor": "rgba(0, 211, 255, 1)",
        "name": "Annotations & Alerts",
        "target": {
          "limit": 100,
          "matchAny": false,
          "tags": [],
          "type": "dashboard"
        },
        "type": "dashboard"
      }
    ]
  },
  "editable": true,
  "fiscalYearStartMonth": 0,
  "graphTooltip": 0,
  "id": 5454,
  "links": [],
  "liveNow": false,
  "panels": [
    {
      "datasource": {
        "type": "influxdb",
        "uid": "000009465"
      },
      "gridPos": {
        "h": 3,
        "w": 24,
        "x": 0,
        "y": 0
      },
      "id": 7,
      "options": {
        "code": {
          "language": "plaintext",
          "showLineNumbers": false,
          "showMiniMap": false
        },
        "content": "When querying over long time ranges, grafana aggregates (sums) `Metric` over larger time bins than the default ElasticSearch/OpenSearch ones (15m) to lower the number of data points\nit has to plot.\n\nTo account for this, `Metric` is calculated as the `Metric` per 15min, regardless of the actual bin size displayed",
        "mode": "markdown"
      },
      "pluginVersion": "10.1.5",
      "title": "Note",
      "type": "text"
    },
    {
      "datasource": {
        "type": "mysql",
        "uid": "VGpHWV5Vk"
      },
      "fieldConfig": {
        "defaults": {
          "color": {
            "mode": "palette-classic"
          },
          "custom": {
            "axisCenteredZero": false,
            "axisColorMode": "text",
            "axisLabel": "jobs/hour",
            "axisPlacement": "auto",
            "barAlignment": 0,
            "drawStyle": "line",
            "fillOpacity": 20,
            "gradientMode": "none",
            "hideFrom": {
              "legend": false,
              "tooltip": false,
              "viz": false
            },
            "insertNulls": false,
            "lineInterpolation": "linear",
            "lineWidth": 1,
            "pointSize": 5,
            "scaleDistribution": {
              "type": "linear"
            },
            "showPoints": "auto",
            "spanNulls": false,
            "stacking": {
              "group": "A",
              "mode": "normal"
            },
            "thresholdsStyle": {
              "mode": "off"
            }
          },
          "mappings": [],
          "noValue": "0",
          "thresholds": {
            "mode": "absolute",
            "steps": [
              {
                "color": "green",
                "value": null
              },
              {
                "color": "red",
                "value": 80
              }
            ]
          },
          "unit": "si:"
        },
        "overrides": []
      },
      "gridPos": {
        "h": 9,
        "w": 12,
        "x": 0,
        "y": 3
      },
      "id": 2,
      "options": {
        "legend": {
          "calcs": [
            "max",
            "mean",
            "min",
            "last"
          ],
          "displayMode": "table",
          "placement": "bottom",
          "showLegend": true,
          "sortBy": "Max",
          "sortDesc": true
        },
        "tooltip": {
          "mode": "multi",
          "sort": "none"
        }
      },
      "targets": [
        {
          "datasource": {
            "type": "mysql",
            "uid": "VGpHWV5Vk"
          },
          "editorMode": "code",
          "format": "time_series",
          "group": [],
          "metricColumn": "none",
          "rawQuery": true,
          "rawSql": "SELECT\n`ac_key_LHCb-Production_Job_Site`.`value`,\n`ac_bucket_LHCb-Production_Job`.`startTime` as time,\nSUM(`ac_bucket_LHCb-Production_Job`.`entriesInBucket`) / `ac_bucket_LHCb-Production_Job`.`bucketLength` * 3600 as metric\nFROM\n`ac_bucket_LHCb-Production_Job`,\n`ac_key_LHCb-Production_Job_Site`\nWHERE $__unixEpochFilter(`ac_bucket_LHCb-Production_Job`.`startTime`)\nAND ( `ac_key_LHCb-Production_Job_Site`.`value` IN (${HPCsites:raw} ) )\nAND `ac_bucket_LHCb-Production_Job`.`Site` = `ac_key_LHCb-Production_Job_Site`.`id`\nGROUP BY\nstartTime,\n`ac_key_LHCb-Production_Job_Site`.Value,\nbucketlength\n",
          "refId": "A",
          "select": [
            [
              {
                "params": [
                  "endTime"
                ],
                "type": "column"
              }
            ]
          ],
          "sql": {
            "columns": [
              {
                "parameters": [],
                "type": "function"
              }
            ],
            "groupBy": [
              {
                "property": {
                  "type": "string"
                },
                "type": "groupBy"
              }
            ],
            "limit": 50
          },
          "table": "ac_in_LHCb-Production_DataOperation",
          "timeColumn": "takenSince",
          "timeColumnType": "timestamp",
          "where": [
            {
              "name": "$__timeFilter",
              "params": [],
              "type": "macro"
            }
          ]
        }
      ],
      "title": "HPC Jobs By Site",
      "transformations": [
        {
          "id": "renameByRegex",
          "options": {
            "regex": "metric ",
            "renamePattern": ""
          }
        }
      ],
      "type": "timeseries"
    },
    {
      "datasource": {
        "type": "mysql",
        "uid": "VGpHWV5Vk"
      },
      "fieldConfig": {
        "defaults": {
          "color": {
            "mode": "palette-classic"
          },
          "custom": {
            "axisCenteredZero": false,
            "axisColorMode": "text",
            "axisLabel": "jobs/hour",
            "axisPlacement": "auto",
            "barAlignment": 0,
            "drawStyle": "line",
            "fillOpacity": 20,
            "gradientMode": "none",
            "hideFrom": {
              "legend": false,
              "tooltip": false,
              "viz": false
            },
            "insertNulls": false,
            "lineInterpolation": "linear",
            "lineWidth": 1,
            "pointSize": 5,
            "scaleDistribution": {
              "type": "linear"
            },
            "showPoints": "auto",
            "spanNulls": false,
            "stacking": {
              "group": "A",
              "mode": "normal"
            },
            "thresholdsStyle": {
              "mode": "off"
            }
          },
          "mappings": [],
          "noValue": "0",
          "thresholds": {
            "mode": "absolute",
            "steps": [
              {
                "color": "green",
                "value": null
              },
              {
                "color": "red",
                "value": 80
              }
            ]
          },
          "unit": "si:"
        },
        "overrides": []
      },
      "gridPos": {
        "h": 9,
        "w": 12,
        "x": 12,
        "y": 3
      },
      "id": 6,
      "options": {
        "legend": {
          "calcs": [
            "max",
            "mean",
            "min",
            "last"
          ],
          "displayMode": "table",
          "placement": "bottom",
          "showLegend": true,
          "sortBy": "Max",
          "sortDesc": true
        },
        "tooltip": {
          "mode": "multi",
          "sort": "none"
        }
      },
      "targets": [
        {
          "datasource": {
            "type": "mysql",
            "uid": "VGpHWV5Vk"
          },
          "format": "time_series",
          "group": [],
          "metricColumn": "none",
          "rawQuery": true,
          "rawSql": "SELECT\n`ac_key_LHCb-Production_Job_FinalMajorStatus`.`value`,\n`ac_bucket_LHCb-Production_Job`.`startTime` as time,\nSUM(`ac_bucket_LHCb-Production_Job`.`entriesInBucket`) / `ac_bucket_LHCb-Production_Job`.`bucketLength` * 3600 as metric\nFROM\n`ac_bucket_LHCb-Production_Job`,\n`ac_key_LHCb-Production_Job_Site`,\n`ac_key_LHCb-Production_Job_FinalMajorStatus`\nWHERE $__unixEpochFilter(`ac_bucket_LHCb-Production_Job`.`startTime`)\nAND ( `ac_key_LHCb-Production_Job_Site`.`value` IN (${HPCsites:raw} ) )\nAND `ac_bucket_LHCb-Production_Job`.`Site` = `ac_key_LHCb-Production_Job_Site`.`id`\nAND `ac_bucket_LHCb-Production_Job`.`FinalMajorStatus` = `ac_key_LHCb-Production_Job_FinalMajorStatus`.`id`\nGROUP BY\nstartTime,\n`ac_key_LHCb-Production_Job_FinalMajorStatus`.Value,\nbucketlength\n",
          "refId": "A",
          "select": [
            [
              {
                "params": [
                  "endTime"
                ],
                "type": "column"
              }
            ]
          ],
          "table": "ac_in_LHCb-Production_DataOperation",
          "timeColumn": "takenSince",
          "timeColumnType": "timestamp",
          "where": [
            {
              "name": "$__timeFilter",
              "params": [],
              "type": "macro"
            }
          ]
        }
      ],
      "title": "HPC Jobs By Status",
      "transformations": [
        {
          "id": "renameByRegex",
          "options": {
            "regex": "metric ",
            "renamePattern": ""
          }
        }
      ],
      "type": "timeseries"
    },
    {
      "datasource": {
        "type": "elasticsearch",
        "uid": "iHcJcc-7z"
      },
      "fieldConfig": {
        "defaults": {
          "color": {
            "mode": "palette-classic"
          },
          "custom": {
            "axisCenteredZero": false,
            "axisColorMode": "text",
            "axisLabel": "jobs/15min",
            "axisPlacement": "auto",
            "barAlignment": 0,
            "drawStyle": "line",
            "fillOpacity": 20,
            "gradientMode": "none",
            "hideFrom": {
              "legend": false,
              "tooltip": false,
              "viz": false
            },
            "insertNulls": false,
            "lineInterpolation": "linear",
            "lineWidth": 1,
            "pointSize": 5,
            "scaleDistribution": {
              "type": "linear"
            },
            "showPoints": "auto",
            "spanNulls": false,
            "stacking": {
              "group": "A",
              "mode": "normal"
            },
            "thresholdsStyle": {
              "mode": "off"
            }
          },
          "mappings": [],
          "noValue": "0",
          "thresholds": {
            "mode": "absolute",
            "steps": [
              {
                "color": "green",
                "value": null
              },
              {
                "color": "red",
                "value": 80
              }
            ]
          },
          "unit": "si:"
        },
        "overrides": []
      },
      "gridPos": {
        "h": 9,
        "w": 12,
        "x": 0,
        "y": 12
      },
      "id": 5,
      "options": {
        "legend": {
          "calcs": [
            "max",
            "mean",
            "min",
            "last"
          ],
          "displayMode": "table",
          "placement": "bottom",
          "showLegend": true,
          "sortBy": "Max",
          "sortDesc": true
        },
        "tooltip": {
          "mode": "multi",
          "sort": "none"
        }
      },
      "targets": [
        {
          "alias": "",
          "bucketAggs": [
            {
              "field": "Site",
              "id": "3",
              "settings": {
                "min_doc_count": "1",
                "order": "desc",
                "orderBy": "_term",
                "size": "10"
              },
              "type": "terms"
            },
            {
              "field": "timestamp",
              "id": "2",
              "settings": {
                "interval": "auto"
              },
              "type": "date_histogram"
            }
          ],
          "datasource": {
            "type": "elasticsearch",
            "uid": "iHcJcc-7z"
          },
          "metrics": [
            {
              "field": "Jobs",
              "id": "1",
              "settings": {
                "script": "_value * 3600 / $__interval_ms * 250"
              },
              "type": "sum"
            }
          ],
          "query": "Status: Running AND Site: (${HPCsites:raw})",
          "refId": "A",
          "timeField": "timestamp"
        }
      ],
      "title": "Running HPC Jobs By Site (ES: WMSHistory)",
      "type": "timeseries"
    },
    {
      "datasource": {
        "type": "mysql",
        "uid": "VGpHWV5Vk"
      },
      "fieldConfig": {
        "defaults": {
          "color": {
            "mode": "palette-classic"
          },
          "custom": {
            "axisCenteredZero": false,
            "axisColorMode": "text",
            "axisLabel": "jobs/hour",
            "axisPlacement": "auto",
            "barAlignment": 0,
            "drawStyle": "line",
            "fillOpacity": 20,
            "gradientMode": "none",
            "hideFrom": {
              "legend": false,
              "tooltip": false,
              "viz": false
            },
            "insertNulls": false,
            "lineInterpolation": "linear",
            "lineWidth": 1,
            "pointSize": 5,
            "scaleDistribution": {
              "type": "linear"
            },
            "showPoints": "auto",
            "spanNulls": false,
            "stacking": {
              "group": "A",
              "mode": "normal"
            },
            "thresholdsStyle": {
              "mode": "off"
            }
          },
          "mappings": [],
          "noValue": "0",
          "thresholds": {
            "mode": "absolute",
            "steps": [
              {
                "color": "green",
                "value": null
              },
              {
                "color": "red",
                "value": 80
              }
            ]
          },
          "unit": "si:"
        },
        "overrides": []
      },
      "gridPos": {
        "h": 9,
        "w": 12,
        "x": 12,
        "y": 12
      },
      "id": 4,
      "options": {
        "legend": {
          "calcs": [
            "max",
            "mean",
            "min",
            "last"
          ],
          "displayMode": "table",
          "placement": "bottom",
          "showLegend": true,
          "sortBy": "Max",
          "sortDesc": true
        },
        "tooltip": {
          "mode": "multi",
          "sort": "none"
        }
      },
      "targets": [
        {
          "datasource": {
            "type": "mysql",
            "uid": "VGpHWV5Vk"
          },
          "format": "time_series",
          "group": [],
          "metricColumn": "none",
          "rawQuery": true,
          "rawSql": "SELECT\n`ac_key_LHCb-Production_Job_Site`.`value`,\n`ac_bucket_LHCb-Production_Job`.`startTime` as time,\nSUM(`ac_bucket_LHCb-Production_Job`.`entriesInBucket`) / `ac_bucket_LHCb-Production_Job`.`bucketLength` * 3600 as metric\nFROM\n`ac_bucket_LHCb-Production_Job`,\n`ac_key_LHCb-Production_Job_Site`,\n`ac_key_LHCb-Production_Job_FinalMajorStatus`\nWHERE $__unixEpochFilter(`ac_bucket_LHCb-Production_Job`.`startTime`)\nAND ( `ac_key_LHCb-Production_Job_Site`.`value` IN (${HPCsites:raw} ) )\nAND `ac_bucket_LHCb-Production_Job`.`Site` = `ac_key_LHCb-Production_Job_Site`.`id`\nAND `ac_key_LHCb-Production_Job_FinalMajorStatus`.value = \"Failed\"\nAND `ac_bucket_LHCb-Production_Job`.`FinalMajorStatus` = `ac_key_LHCb-Production_Job_FinalMajorStatus`.`id`\nGROUP BY\nstartTime,\n`ac_key_LHCb-Production_Job_Site`.Value,\nbucketlength\n",
          "refId": "A",
          "select": [
            [
              {
                "params": [
                  "endTime"
                ],
                "type": "column"
              }
            ]
          ],
          "table": "ac_in_LHCb-Production_DataOperation",
          "timeColumn": "takenSince",
          "timeColumnType": "timestamp",
          "where": [
            {
              "name": "$__timeFilter",
              "params": [],
              "type": "macro"
            }
          ]
        }
      ],
      "title": "Failed HPC Jobs By Site",
      "transformations": [
        {
          "id": "renameByRegex",
          "options": {
            "regex": "metric ",
            "renamePattern": ""
          }
        }
      ],
      "type": "timeseries"
    }
  ],
  "refresh": "",
  "schemaVersion": 38,
  "style": "dark",
  "tags": [],
  "templating": {
    "list": [
      {
        "hide": 2,
        "label": "HPCsites",
        "name": "HPCsites",
        "query": "\"DIRAC.SDumont.br\", \"DIRAC.NERSC.us\", \"LCG.CSCS.ch\", \"DIRAC.OSC.us\", \"DIRAC.MareNostrum.es\", \"DIRAC.Kabre.cr\"",
        "skipUrlSync": false,
        "type": "constant"
      }
    ]
  },
  "time": {
    "from": "now-24h",
    "to": "now"
  },
  "timepicker": {},
  "timezone": "",
  "title": "HPC Sites",
  "uid": "YPADvV-Vz",
  "version": 3,
  "weekStart": ""
}
